<?xml version="1.0" standalone="no"?>
<!DOCTYPE svg PUBLIC "-//W3C//DTD SVG 20010904//EN"
 "http://www.w3.org/TR/2001/REC-SVG-20010904/DTD/svg10.dtd">
<svg version="1.0" xmlns="http://www.w3.org/2000/svg"
 width="512.000000pt" height="512.000000pt" viewBox="0 0 512.000000 512.000000"
 preserveAspectRatio="xMidYMid meet">
<metadata>
Created by potrace 1.11, written by Peter Selinger 2001-2013
</metadata>
<g transform="translate(0.000000,512.000000) scale(0.100000,-0.100000)"
fill="#000000" stroke="none">
<path d="M2657 4883 c-2 -4 -4 -296 -3 -648 l1 -639 35 -10 c122 -32 259 -85
293 -114 9 -8 17 -12 17 -8 0 16 173 -115 241 -183 172 -173 290 -397 322
-611 l4 -25 665 -2 664 -1 -2 81 c-3 108 -15 228 -29 297 -3 14 -8 41 -11 60
-3 19 -13 62 -21 95 -8 33 -16 67 -18 75 -13 60 -97 276 -147 377 -129 263
-348 548 -547 710 -19 16 -48 40 -65 56 -17 15 -62 48 -101 74 -38 26 -72 50
-75 53 -24 25 -208 124 -345 185 -56 26 -248 93 -284 100 -9 2 -43 10 -76 18
-83 22 -232 47 -306 52 -20 1 -42 5 -48 9 -6 4 -11 1 -11 -6 0 -8 -3 -9 -8 -3
-8 13 -138 20 -145 8z"/>
<path d="M2287 4694 c-1 -1 -34 -4 -74 -7 -57 -5 -206 -28 -268 -41 -5 -1 -26
-6 -45 -10 -38 -8 -186 -53 -210 -63 -8 -3 -17 -7 -20 -7 -71 -17 -319 -138
-432 -212 -172 -111 -401 -316 -514 -459 -21 -27 -41 -52 -44 -55 -3 -3 -14
-18 -26 -35 -11 -16 -37 -54 -57 -82 -20 -29 -37 -57 -37 -63 0 -5 -4 -10 -8
-10 -5 0 -17 -19 -28 -41 -10 -23 -23 -47 -29 -53 -27 -28 -161 -344 -180
-426 -2 -8 -9 -31 -15 -50 -15 -50 -48 -197 -55 -250 -3 -25 -9 -67 -13 -95
-9 -69 -8 -468 2 -535 4 -30 9 -66 11 -80 6 -48 16 -96 41 -190 13 -52 26
-102 28 -110 10 -39 53 -153 87 -233 209 -484 579 -876 1049 -1113 268 -135
502 -201 805 -230 103 -10 126 -10 131 -2 3 5 11 5 17 1 18 -12 81 -10 89 2 5
7 8 6 8 -1 0 -6 12 -10 28 -8 15 2 52 6 82 9 69 7 128 14 160 20 14 3 41 7 60
10 56 9 174 37 185 43 5 3 16 7 25 7 8 1 33 7 55 14 59 18 59 19 66 17 3 0 12
4 20 10 8 6 32 17 54 24 85 27 310 144 429 222 45 30 194 144 225 172 54 50
194 190 221 222 83 96 230 303 230 324 0 5 4 10 8 10 11 0 131 252 170 355 27
71 75 234 88 298 13 63 35 196 33 203 -1 5 0 11 1 14 4 11 10 79 13 167 4 86
3 91 -17 95 -18 3 -1009 2 -1043 -1 -6 -1 -11 -9 -11 -18 3 -51 -15 -190 -32
-257 -56 -213 -146 -374 -296 -532 -70 -73 -244 -203 -280 -208 -6 -1 -22 -8
-35 -17 -30 -18 -152 -66 -189 -74 -3 -1 -18 -4 -35 -8 -121 -29 -175 -35
-299 -32 -67 1 -150 8 -186 15 -79 15 -228 63 -284 92 -23 12 -42 20 -44 19
-1 -1 -43 26 -92 59 -136 92 -242 197 -335 335 -50 73 -135 264 -149 333 -1 9
-6 28 -9 42 -25 98 -31 324 -12 430 20 105 20 106 50 195 104 311 366 579 685
698 116 43 254 69 373 70 l47 0 0 71 c1 116 1 844 0 933 l0 81 -85 -1 c-48 -1
-87 -2 -88 -3z"/>
</g>
</svg>
