<svg xmlns="http://www.w3.org/2000/svg" width="18" height="18" viewBox="0 0 18 18">
  <path id="chevron-circle-right" d="M17,8a9,9,0,1,1-9,9A9,9,0,0,1,17,8Zm4.133,8.383-4.917-4.917a.867.867,0,0,0-1.23,0l-.617.617a.867.867,0,0,0,0,1.23L18.056,17l-3.687,3.687a.867.867,0,0,0,0,1.23l.617.617a.867.867,0,0,0,1.23,0l4.917-4.917A.872.872,0,0,0,21.133,16.383Z" transform="translate(-8 -8)" fill="#004375"/>
</svg>
