<svg xmlns="http://www.w3.org/2000/svg" width="112" height="31.96" viewBox="0 0 112 31.96">
    <g transform="translate(-103.847 -315.515)">
        <path d="M203.59,332.489H211v1.94h-4.987v1.628h4.558v1.875h-4.558V339.7h5.118v2.084H203.59Z"
              transform="translate(-65.038 -11.068)" fill="#ffffff"/>
        <path d="M237.142,337.945c0,2.7-1.237,4.037-4.05,4.037s-4.049-1.341-4.049-4.037v-5.456h2.422v5.6c0,1.2.443,1.81,1.628,1.81s1.628-.612,1.628-1.81v-5.6h2.422Z"
              transform="translate(-81.635 -11.068)" fill="#ffffff"/>
        <path d="M275.766,342.384l-1.276-1.25a4.724,4.724,0,0,1-2.162.482c-2.93,0-4.583-2.149-4.583-4.844s1.653-4.844,4.583-4.844,4.583,2.149,4.583,4.844a5.105,5.105,0,0,1-1.159,3.386l1.12,1.081Zm-2.6-4.753.912.886a3.394,3.394,0,0,0,.417-1.745c0-1.38-.6-2.76-2.162-2.76s-2.161,1.38-2.161,2.76.6,2.761,2.161,2.761a1.811,1.811,0,0,0,.482-.052l-.729-.716Z"
              transform="translate(-106.87 -10.702)" fill="#ffffff"/>
        <path d="M305.786,337.945c0,2.7-1.237,4.037-4.05,4.037s-4.049-1.341-4.049-4.037v-5.456h2.422v5.6c0,1.2.443,1.81,1.627,1.81s1.628-.612,1.628-1.81v-5.6h2.422Z"
              transform="translate(-126.394 -11.068)" fill="#ffffff"/>
        <path d="M325.61,332.489h7.409v1.94h-4.987v1.628h4.557v1.875h-4.557V339.7h5.118v2.084H325.61Z"
              transform="translate(-144.602 -11.068)" fill="#ffffff"/>
        <path d="M351.249,332.488h4.74c1.641,0,3.255.742,3.255,2.617a2.391,2.391,0,0,1-1.459,2.331v.026c.99.235,1.276,1.341,1.354,2.227.026.391.065,1.758.391,2.1h-2.4a4.5,4.5,0,0,1-.273-1.484c-.065-.938-.221-1.9-1.355-1.9h-1.835v3.386h-2.422Zm2.422,4.037H355.7a1,1,0,0,0,1.12-1.094c0-.69-.547-1-1.224-1h-1.927Z"
              transform="translate(-161.319 -11.067)" fill="#ffffff"/>
        <path d="M381.845,331.928c2.93,0,4.583,2.149,4.583,4.844s-1.654,4.844-4.583,4.844-4.583-2.149-4.583-4.844,1.654-4.844,4.583-4.844m0,7.6c1.563,0,2.161-1.38,2.161-2.761s-.6-2.76-2.161-2.76-2.161,1.38-2.161,2.76.6,2.761,2.161,2.761"
              transform="translate(-178.281 -10.702)" fill="#ffffff"/>
        <rect width="2.806" height="10.772" transform="translate(138.577 331.902)" fill="#ffffff"/>
        <path d="M217.235,362.612h2.882l3.741,6.638h.03v-6.638h2.64v10.772h-2.882l-3.741-6.714h-.03v6.714h-2.64Z"
              transform="translate(-73.935 -30.71)" fill="#ffffff"/>
        <path d="M252.827,373.385H249.6L246.2,362.612h2.927l2.112,8.011h.03l2.112-8.011h2.927Z"
              transform="translate(-92.824 -30.71)" fill="#ffffff"/>
        <path d="M277.556,362.612h8.584v2.248h-5.778v1.886h5.28v2.173h-5.28v2.052h5.929v2.414h-8.736Z"
              transform="translate(-113.268 -30.71)" fill="#ffffff"/>
        <path d="M308.289,369.34c.061,1.267.845,1.674,2.037,1.674.845,0,1.72-.3,1.72-1.1,0-.95-1.539-1.132-3.093-1.569-1.539-.438-3.153-1.132-3.153-3.108,0-2.354,2.369-3.274,4.39-3.274,2.142,0,4.3,1.041,4.315,3.47H311.7c.045-.981-.875-1.3-1.735-1.3-.6,0-1.358.211-1.358.92,0,.83,1.554.981,3.123,1.418s3.123,1.162,3.123,3.108c0,2.731-2.323,3.606-4.692,3.606-2.474,0-4.662-1.086-4.677-3.847Z"
              transform="translate(-131.477 -30.286)" fill="#ffffff"/>
        <path d="M343.424,365.026h-3.213v8.358H337.4v-8.358h-3.214v-2.414h9.233Z" transform="translate(-150.197 -30.71)"
              fill="#ffffff"/>
        <rect width="2.806" height="10.772" transform="translate(194.465 331.902)" fill="#ffffff"/>
        <path d="M377.945,362.613h5.492c1.9,0,3.772.86,3.772,3.032a2.77,2.77,0,0,1-1.69,2.7v.03c1.147.271,1.478,1.554,1.569,2.58.03.453.076,2.037.453,2.429h-2.776a5.212,5.212,0,0,1-.317-1.72c-.075-1.086-.256-2.2-1.569-2.2h-2.127v3.923h-2.806Zm2.806,4.677H383.1a1.154,1.154,0,0,0,1.3-1.268c0-.8-.634-1.161-1.418-1.161h-2.233Z"
              transform="translate(-178.727 -30.71)" fill="#ffffff"/>
        <rect width="4.56" height="4.472" transform="translate(211.156 338.203)" fill="#ffffff"/>
        <path d="M412.255,380.721h4.56l-4.56,4.472Z" transform="translate(-201.098 -42.518)" fill="#ffffff"/>
        <path d="M417,338.1l-1.229,9.7h-2.237l-1.2-9.7v-6.048H417Z" transform="translate(-201.151 -10.782)"
              fill="#ffffff"/>
        <path d="M111.219,334.557a7.888,7.888,0,0,1,7.889-7.888c.057,0,.112.007.169.008v-7.45c-.082,0-.162-.005-.244-.005a15.328,15.328,0,0,0-10.609,26.252l5.228-5.227a7.861,7.861,0,0,1-2.433-5.69"
              transform="translate(0 -2.417)" fill="#ffffff"/>
        <path d="M142.943,363.16h-7.372l0,.047a7.883,7.883,0,0,1-13.344,5.69L117,374.124a15.379,15.379,0,0,0,7.68,4.135q.708.139,1.438.211c.038,0,.077,0,.115.009.2.018.411.034.617.045q.377.019.758.019a15.335,15.335,0,0,0,15.335-15.335Z"
              transform="translate(-8.577 -31.067)" fill="#ffffff"/>
        <path d="M156.206,326.706l6.681-6.681a15.379,15.379,0,0,0-10.9-4.511V324.4a7.869,7.869,0,0,1,4.22,2.31"
              transform="translate(-31.389)" fill="#ffffff"/>
        <path d="M166.194,339.4h9.13a15.38,15.38,0,0,0-4.528-10.919l-6.681,6.681a7.853,7.853,0,0,1,2.079,4.238"
              transform="translate(-39.298 -8.453)" fill="#ffffff"/>
    </g>
</svg>