<?xml version="1.0"?>
<svg xmlns="http://www.w3.org/2000/svg" width="26" height="25.843" viewBox="0 0 26 25.843">
  <path d="M26.563,13.563A13,13,0,1,0,11.531,26.406V17.321h-3.3V13.563h3.3V10.7c0-3.258,1.94-5.057,4.91-5.057a20.007,20.007,0,0,1,2.91.254v3.2h-1.64a1.879,1.879,0,0,0-2.118,2.03v2.44H19.2l-.577,3.758H15.594v9.085A13,13,0,0,0,26.563,13.563Z" transform="translate(-0.563 -0.563)" fill="#004375"/>
</svg>
